{
  "builders":
  [
    {
      "type": "qemu",
      "accelerator": "kvm",
      "headless": false,
      "qemuargs": [
        [ "-m", "4096M" ],
        [ "-smp", "cpus=4,maxcpus=16,cores=4" ]
      ],
      "disk_interface": "virtio",
      "disk_size": 35840,
      "format": "qcow2",
      "net_device": "virtio-net",

      "iso_url": "http://mirror.internode.on.net/pub/centos/7/isos/x86_64/CentOS-7-x86_64-Minimal-1804.iso",
      "iso_checksum": "714acc0aefb32b7d51b515e25546835e55a90da9fb00417fbee2d03a62801efd",
      "iso_checksum_type": "sha256",

      "vm_name": "centos7-base.qcow2",
      "output_directory": "images",

      "http_directory": "http",
      "http_port_min": 10082,
      "http_port_max": 10089,

      "ssh_host_port_min": 2222,
      "ssh_host_port_max": 2229,

      "ssh_username": "root",
      "ssh_password": "root",
      "ssh_port": 22,
      "ssh_wait_timeout": "1200s",

      "boot_wait": "10s",
      "boot_command": [
        "<up><wait><tab><wait> text ks=http://{{ .HTTPIP }}:{{ .HTTPPort }}/c7-kvm-ks.cfg fips=1<enter><wait>"
      ],

      "shutdown_command": "shutdown -P now"
    }
  ],
  "post-processors": [
    {
      "environment_vars": [
        "LIBGUESTFS_BACKEND=direct"
      ],
      "type": "shell-local",
      "command": "virt-sysprep -a images/centos7-base.qcow2"
    }
  ],
  "provisioners":
  [
    {
      "type": "shell",
      "script": "scripts/ansible.sh"
    },
    {
      "type": "ansible-local",
      "playbook_file": "ansible/main.yml",
      "galaxy_file": "ansible/requirements.yml"
    }
  ]
}
